Biostat 203B Homework 3
…
rename the columns

#rename the columns
item_to_label <- dlabitems_tble %>%
  deframe()

Warning: `x` must be a one- or two-column data frame in `deframe()`.

labevents_tble <- labevents_tble %>%
  rename_with(.fn = ~ifelse(.x %in% names(item_to_label),
                            item_to_label[.x], .x), .cols = everything())

print(labevents_tble, width = Inf)

# A tibble: 68,467 × 10
# Groups:   subject_id, stay_id [68,467]
   subject_id  stay_id Bicarbonate Chloride Creatinine Glucose Potassium Sodium
        <dbl>    <dbl>       <dbl>    <dbl>      <dbl>   <dbl>     <dbl>  <dbl>
 1   10000032 39553978          25       95        0.7     102       6.7    126
 2   10000980 39765666          21      109        2.3      89       3.9    144
 3   10001217 34592300          30      104        0.5      87       4.1    142
 4   10001217 37067082          22      108        0.6     112       4.2    142
 5   10001725 31205490          NA       98       NA        NA       4.1    139
 6   10001884 37510196          30       88        1.1     141       4.5    130
 7   10002013 39060235          24      102        0.9     288       3.5    137
 8   10002155 31090461          23       98        2.8     117       4.9    135
 9   10002155 32358465          26       85        1.4     133       5.7    120
10   10002155 33685454          24      105        1.1     138       4.6    139
   Hematocrit `White Blood Cells`
        <dbl>               <dbl>
 1       41.1                 6.9
 2       27.3                 5.3
 3       37.4                 5.4
 4       38.1                15.7
 5       NA                  NA  
 6       39.7                12.2
 7       34.9                 7.2
 8       25.5                17.9
 9       22.4                 9.8
10       39.7                 7.9
# ℹ 68,457 more rows
…
#rename the columns
item_to_label <- d_items_tble %>%
  deframe()

Warning: `x` must be a one- or two-column data frame in `deframe()`.

chartevents_tble <- chartevents_tble %>%
  rename_with(.fn = ~ifelse(.x %in% names(item_to_label),
                            item_to_label[.x], .x), .cols = everything())

print(chartevents_tble, width = Inf)

# A tibble: 73,164 × 8
   subject_id  stay_id outtime             `Heart Rate`
        <dbl>    <dbl> <dttm>                     <dbl>
 1   10000032 39553978 2180-07-23 23:50:47           91
 2   10000980 39765666 2189-06-27 20:38:27           77
 3   10001217 34592300 2157-12-20 14:27:41           96
 4   10001217 37067082 2157-11-21 22:08:00           86
 5   10001725 31205490 2110-04-12 23:59:56           55
 6   10001884 37510196 2131-01-20 08:27:30           38
 7   10002013 39060235 2160-05-19 17:33:33           80
 8   10002155 31090461 2130-09-27 22:13:41           94
 9   10002155 32358465 2131-03-10 18:09:21           98
10   10002155 33685454 2129-08-10 17:02:38           68
   `Non Invasive Blood Pressure systolic`
                                    <dbl>
 1                                     84
 2                                    150
 3                                    167
 4                                    151
 5                                     73
 6                                    180
 7                                    104
 8                                    118
 9                                    109
10                                    126
   `Non Invasive Blood Pressure diastolic` `Respiratory Rate`
                                     <dbl>              <dbl>
 1                                      48                 24
 2                                      77                 23
 3                                      95                 11
 4                                      90                 18
 5                                      56                 19
 6                                      12                 10
 7                                      70                 14
 8                                      51                 18
 9                                      65                 23
10                                      61                 18
   `Temperature Fahrenheit`
                      <dbl>
 1                     98.7
 2                     98  
 3                     97.6
 4                     98.5
 5                     97.7
 6                     98.1
 7                     97.2
 8                     96.9
 9                     97.7
10                     95.9
# ℹ 73,154 more rows
…
